…
#### check and plot no captures:

    ## # A tibble: 5 x 2
    ##   `Target species` Count
    ##   <chr>            <int>
    ## 1 all species        179
    ## 2 gamefish species    70
    ## 3 brook trout         13
    ## 4 brown trout          3
    ## 5 trouts unsp          1

    ## # A tibble: 21 x 2
    ##    `Primary Survey Purpose`             Count
    ##    <chr>                                <int>
    ##  1 fisheries assessments trout rotation    62
    ##  2 special study                           57
    ##  3 comprehensive survey                    54
    ##  4 baseline monitoring                     28
    ##  5 watershed clean water act               13
    ##  6 general survey                           8
    ##  7 baseline random                          5
    ##  8 fisheries assessments trout trend        5
    ##  9 natural community reference              5
    ## 10 stocking evaluation                      4
    ## # ... with 11 more rows
…
